ALU/simulation/qsim/LogicalStep_Lab2.msim.vcd
$comment
	File created using the following command:
		vcd file LogicalStep_Lab2.msim.vcd -direction
$end
$date
	Fri Jun 03 18:33:35 2022
$end
$version
	ModelSim Version 10.4b
$end
$timescale
	1ps
$end

$scope module LogicalStep_Lab2_top_vlg_vec_tst $end
$var reg 1 ! clkin_50 $end
$var reg 4 " pb_n [3:0] $end
$var reg 8 # sw [7:0] $end
$var wire 1 $ leds [7] $end
$var wire 1 % leds [6] $end
$var wire 1 & leds [5] $end
$var wire 1 ' leds [4] $end
$var wire 1 ( leds [3] $end
$var wire 1 ) leds [2] $end
$var wire 1 * leds [1] $end
$var wire 1 + leds [0] $end
$var wire 1 , seg7_char1 $end
$var wire 1 - seg7_char2 $end
$var wire 1 . seg7_data [6] $end
$var wire 1 / seg7_data [5] $end
$var wire 1 0 seg7_data [4] $end
$var wire 1 1 seg7_data [3] $end
$var wire 1 2 seg7_data [2] $end
$var wire 1 3 seg7_data [1] $end
$var wire 1 4 seg7_data [0] $end

$scope module i1 $end
$var wire 1 5 gnd $end
$var wire 1 6 vcc $end
$var wire 1 7 unknown $end
$var tri1 1 8 devclrn $end
$var tri1 1 9 devpor $end
$var tri1 1 : devoe $end
$var wire 1 ; pb_n[3]~input_o $end
$var wire 1 < ~QUARTUS_CREATED_GND~I_combout $end
$var wire 1 = ~QUARTUS_CREATED_UNVM~~busy $end
$var wire 1 > ~QUARTUS_CREATED_ADC1~~eoc $end
$var wire 1 ? seg7_data[1]~output_o $end
$var wire 1 @ seg7_data[5]~output_o $end
$var wire 1 A seg7_data[6]~output_o $end
$var wire 1 B leds[0]~output_o $end
$var wire 1 C leds[1]~output_o $end
$var wire 1 D leds[2]~output_o $end
$var wire 1 E leds[3]~output_o $end
$var wire 1 F leds[4]~output_o $end
$var wire 1 G leds[5]~output_o $end
$var wire 1 H leds[6]~output_o $end
$var wire 1 I leds[7]~output_o $end
$var wire 1 J seg7_data[0]~output_o $end
$var wire 1 K seg7_data[2]~output_o $end
$var wire 1 L seg7_data[3]~output_o $end
$var wire 1 M seg7_data[4]~output_o $end
$var wire 1 N seg7_char1~output_o $end
$var wire 1 O seg7_char2~output_o $end
$var wire 1 P sw[0]~input_o $end
$var wire 1 Q sw[4]~input_o $end
$var wire 1 R pb_n[2]~input_o $end
$var wire 1 S INST7|chosen_hex[0]~0_combout $end
$var wire 1 T sw[1]~input_o $end
$var wire 1 U sw[5]~input_o $end
$var wire 1 V INST6|INST2|carry_out~0_combout $end
$var wire 1 W sw[6]~input_o $end
$var wire 1 X sw[2]~input_o $end
$var wire 1 Y INST7|chosen_hex[2]~2_combout $end
$var wire 1 Z sw[7]~input_o $end
$var wire 1 [ sw[3]~input_o $end
$var wire 1 \ INST6|INST3|carry_out~0_combout $end
$var wire 1 ] INST7|chosen_hex[3]~3_combout $end
$var wire 1 ^ INST6|INST2|sum_out~combout $end
$var wire 1 _ INST7|chosen_hex[1]~1_combout $end
$var wire 1 ` INST1|Mux5~0_combout $end
$var wire 1 a INST8|chosen_hex~3_combout $end
$var wire 1 b INST8|chosen_hex~4_combout $end
$var wire 1 c INST8|chosen_hex[0]~0_combout $end
$var wire 1 d INST8|chosen_hex[0]~1_combout $end
$var wire 1 e INST8|chosen_hex~2_combout $end
$var wire 1 f INST2|Mux5~0_combout $end
$var wire 1 g clkin_50~input_o $end
$var wire 1 h clkin_50~inputclkctrl_outclk $end
$var wire 1 i INST3|clk_proc:COUNT[0]~0_combout $end
$var wire 1 j INST3|clk_proc:COUNT[0]~q $end
$var wire 1 k INST3|clk_proc:COUNT[1]~1_combout $end
$var wire 1 l INST3|clk_proc:COUNT[1]~q $end
$var wire 1 m INST3|clk_proc:COUNT[1]~2 $end
$var wire 1 n INST3|clk_proc:COUNT[2]~1_combout $end
$var wire 1 o INST3|clk_proc:COUNT[2]~q $end
$var wire 1 p INST3|clk_proc:COUNT[2]~2 $end
$var wire 1 q INST3|clk_proc:COUNT[3]~1_combout $end
$var wire 1 r INST3|clk_proc:COUNT[3]~q $end
$var wire 1 s INST3|clk_proc:COUNT[3]~2 $end
$var wire 1 t INST3|clk_proc:COUNT[4]~1_combout $end
$var wire 1 u INST3|clk_proc:COUNT[4]~q $end
$var wire 1 v INST3|clk_proc:COUNT[4]~2 $end
$var wire 1 w INST3|clk_proc:COUNT[5]~1_combout $end
$var wire 1 x INST3|clk_proc:COUNT[5]~q $end
$var wire 1 y INST3|clk_proc:COUNT[5]~2 $end
$var wire 1 z INST3|clk_proc:COUNT[6]~1_combout $end
$var wire 1 { INST3|clk_proc:COUNT[6]~q $end
$var wire 1 | INST3|clk_proc:COUNT[6]~2 $end
$var wire 1 } INST3|clk_proc:COUNT[7]~1_combout $end
$var wire 1 ~ INST3|clk_proc:COUNT[7]~q $end
$var wire 1 !! INST3|clk_proc:COUNT[7]~2 $end
$var wire 1 "! INST3|clk_proc:COUNT[8]~1_combout $end
$var wire 1 #! INST3|clk_proc:COUNT[8]~q $end
$var wire 1 $! INST3|clk_proc:COUNT[8]~2 $end
$var wire 1 %! INST3|clk_proc:COUNT[9]~1_combout $end
$var wire 1 &! INST3|clk_proc:COUNT[9]~q $end
$var wire 1 '! INST3|clk_proc:COUNT[9]~2 $end
$var wire 1 (! INST3|clk_proc:COUNT[10]~1_combout $end
$var wire 1 )! INST3|clk_proc:COUNT[10]~q $end
$var wire 1 *! INST3|DOUT_TEMP[1]~0_combout $end
$var wire 1 +! INST1|Mux1~0_combout $end
$var wire 1 ,! INST2|Mux1~0_combout $end
$var wire 1 -! INST3|DOUT_TEMP[5]~1_combout $end
$var wire 1 .! INST1|Mux0~0_combout $end
$var wire 1 /! INST2|Mux0~0_combout $end
$var wire 1 0! INST3|DOUT_TEMP[6]~2_combout $end
$var wire 1 1! pb_n[1]~input_o $end
$var wire 1 2! pb_n[0]~input_o $end
$var wire 1 3! INST4|Mux3~0_combout $end
$var wire 1 4! INST4|Mux2~0_combout $end
$var wire 1 5! INST4|Mux1~0_combout $end
$var wire 1 6! INST4|Mux0~0_combout $end
$var wire 1 7! INST1|Mux6~0_combout $end
$var wire 1 8! INST2|Mux6~0_combout $end
$var wire 1 9! INST3|DOUT[0]~0_combout $end
$var wire 1 :! INST1|Mux4~0_combout $end
$var wire 1 ;! INST2|Mux4~0_combout $end
$var wire 1 <! INST3|DOUT[2]~2_combout $end
$var wire 1 =! INST2|Mux3~0_combout $end
$var wire 1 >! INST1|Mux3~0_combout $end
$var wire 1 ?! INST3|DOUT[3]~3_combout $end
$var wire 1 @! INST2|Mux2~0_combout $end
$var wire 1 A! INST1|Mux2~0_combout $end
$var wire 1 B! INST3|DOUT[4]~4_combout $end
$upscope $end
$upscope $end
$enddefinitions $end
#0
$dumpvars
x!
bx000 "
b10101100 #
1+
0*
0)
1(
0'
0&
0%
0$
1,
0-
04
z3
12
01
00
0/
0.
05
16
x7
18
19
1:
x;
0<
z=
z>
z?
0@
0A
1B
0C
0D
1E
0F
0G
0H
0I
0J
1K
0L
0M
1N
0O
0P
0Q
0R
0S
0T
1U
0V
0W
1X
1Y
1Z
1[
0\
0]
1^
1_
1`
0a
0b
1c
1d
0e
0f
xg
xh
1i
0j
0k
0l
0m
0n
0o
1p
0q
0r
0s
0t
0u
1v
0w
0x
0y
0z
0{
1|
0}
0~
0!!
0"!
0#!
1$!
0%!
0&!
0'!
0(!
0)!
1*!
0+!
1,!
0-!
1.!
0/!
00!
01!
02!
13!
04!
05!
16!
07!
18!
19!
0:!
0;!
0<!
1=!
0>!
1?!
1@!
0A!
1B!
$end
#200000
bx001 "
12!
06!
15!
14!
03!
0B
1C
1D
0E
0(
1)
1*
0+
#400000
bx011 "
bx010 "
11!
02!
16!
1E
1(
#600000
bx011 "
12!
05!
04!
0C
0D
0)
0*
#800000
b10100100 #
b10100000 #
b100000 #
b0 #
bx001 "
bx000 "
0Z
0U
0[
0X
01!
02!
0c
0^
0Y
14!
15!
13!
1B
1D
1C
0d
0_
1:!
1+!
0`
1*
1)
1+
0@!
0=!
08!
0,!
0:!
0.!
0+!
0B!
0?!
09!
1-!
z@
1J
1L
1M
10
11
14
z/
#900000
bx100 "
1R
#1000000
b10 #
b11 #
b1000011 #
b1010011 #
b1011011 #
b1011111 #
b11011111 #
b11111111 #
bx000 "
1Z
1W
1U
1Q
1[
1X
1T
1P
0R
1c
1\
1^
1V
1d
1]
1_
1Y
1@!
1=!
18!
1,!
1:!
1.!
1`
1B!
1?!
19!
0-!
0@
0J
0L
0M
00
01
04
0/
#1100000
bx100 "
1R
1e
1b
1a
1S
0@!
1;!
08!
1/!
0,!
1f
1>!
0B!
1<!
09!
10!
1-!
0*!
0?
z@
zA
1J
0K
1M
10
02
14
z.
z/
03
#1200000
b11111101 #
b10111101 #
b10101101 #
b10101001 #
b10001001 #
bx000 "
0W
0U
0Q
0X
0T
0R
0a
0\
0e
0^
0V
0b
03!
0B
1@!
0;!
18!
0/!
1,!
0f
0]
0_
0Y
0+
1B!
0<!
19!
1A!
0:!
17!
0.!
1+!
0`
00!
0-!
1*!
z?
0@
0A
0J
1K
0M
00
12
04
0.
0/
z3
#1300000
bx100 "
1R
0d
1b
1]
0@!
0=!
08!
1/!
0,!
0>!
07!
1.!
0+!
0B!
0?!
09!
10!
1-!
z@
zA
1J
1L
1M
10
11
14
z.
z/
#1400000
b10000001 #
b1 #
b11 #
bx000 "
0Z
0[
1T
0R
0c
0b
0]
1^
1d
04!
0C
0d
1@!
1=!
18!
0/!
1,!
1>!
17!
0.!
1+!
1_
0*
0@!
0=!
08!
0,!
1B!
1?!
19!
0>!
07!
1.!
00!
0-!
0@
0A
0J
0L
0M
0B!
0?!
09!
00
01
04
0.
0/
1-!
z@
1J
1L
1M
10
11
14
z/
#1500000
bx100 "
1R
#1599000
b10 #
b0 #
0T
0P
0_
0^
0S
14!
13!
1B
1C
0A!
0.!
0+!
1*
1+
#1600000
b10000 #
b110000 #
bx000 "
1U
1Q
0R
1^
1S
04!
03!
0B
0C
1_
1A!
1>!
17!
1+!
0*
0+
0>!
07!
1.!
#1700000
bx100 "
1R
1e
1d
0_
0S
1@!
1/!
1,!
0A!
0.!
0+!
1B!
10!
0-!
0@
zA
0M
00
z.
0/
#1800000
b110100 #
b111100 #
b111101 #
b111111 #
b101111 #
b1111 #
bx000 "
0U
0Q
1[
1X
1T
1P
0R
0e
0d
1S
1]
1Y
1_
06!
05!
0D
0E
0@!
0/!
0,!
1>!
1:!
1.!
1`
0(
0)
0B!
00!
1-!
z@
0A
1M
10
0.
z/
#1900000
bx100 "
1R
